Causal Data Sets • stat545lamke07
…
Removing columns such as the potential outcomes \(Y_i\) would turn this data set into a causal data set to be used for testing purposes (e.g. a statistical or a machine learning model).

df_causal_multiple %>% 
  dplyr::select(starts_with("X"), treatment, Y_observed)
#> # A tibble: 40 × 7
#>       X1    X2     X3      X4     X5 treatment Y_observed
#>    <dbl> <dbl>  <dbl>   <dbl>  <dbl>     <int>      <dbl>
#>  1  2.45  4.03  2.89   4.07    5.56          1      64.2 
#>  2  4.31  2.89  5.81   0.572   5.36          1      57.6 
#>  3  1.93  1.15  3.78   1.33    1.86          5      35.2 
#>  4  1.84  2.84  2.40   5.66    2.62          3      53.4 
#>  5  3.79  1.53 -0.434  6.71    0.646         4      39.6 
#>  6  2.15  3.37 -3.13  -2.91   -3.82          1     -30.3 
#>  7  1.63  3.53  0.925 -0.455  -1.44          1       3.44
#>  8  1.25  2.21  6.66   9.32   -6.26          1      32.7 
#>  9  3.32  3.44  5.18  -0.0732 10.1           4      80.1 
#> 10  1.19 -1.83  1.24  -1.36    3.27          4      16.2 
#> # … with 30 more rows
…
